[
        "Books & Magazines > Book",
        "Books & Magazines > Author",
        "Books & Magazines > Publisher",
        "Books & Magazines > Book Store",
        "Books & Magazines > Library",
        "Books & Magazines > Magazine",
        "Books & Magazines > Book Series",
        "Brands & Products > Product/Service",
        "Brands & Products > Website",
        "Brands & Products > Cars",
        "Brands & Products > Bags/Luggage",
        "Brands & Products > Camera/Photo",
        "Brands & Products > Clothing",
        "Brands & Products > Computers",
        "Brands & Products > Software",
        "Brands & Products > Office Supplies",
        "Brands & Products > Electronics",
        "Brands & Products > Health/Beauty",
        "Brands & Products > Appliances",
        "Brands & Products > Building Materials",
        "Brands & Products > Commercial Equipment",
        "Brands & Products > Home Decor",
        "Brands & Products > Furniture",
        "Brands & Products > Household Supplies",
        "Brands & Products > Kitchen/Cooking",
        "Brands & Products > Patio/Garden",
        "Brands & Products > Tools/Equipment",
        "Brands & Products > Wine/Spirits",
        "Brands & Products > Jewelry/Watches",
        "Brands & Products > Pet Supplies",
        "Brands & Products > Outdoor Gear/Sporting Goods",
        "Brands & Products > Baby Goods/Kids Goods",
        "Brands & Products > Food/Beverages",
        "Brands & Products > Vitamins/Supplements",
        "Brands & Products > Drugs",
        "Brands & Products > Phone/Tablet",
        "Brands & Products > Games/Toys",
        "Brands & Products > App Page",
        "Brands & Products > Video Game",
        "Brands & Products > Board Game",
        "Companies & Organizations > Company",
        "Companies & Organizations > Health/Beauty",
        "Companies & Organizations > Media/News/Publishing",
        "Companies & Organizations > Bank/Financial Institution",
        "Companies & Organizations > Non-Governmental Organization (NGO)",
        "Companies & Organizations > Insurance Company",
        "Companies & Organizations > Small Business",
        "Companies & Organizations > Energy/Utility",
        "Companies & Organizations > Retail and Consumer Merchandise",
        "Companies & Organizations > Automobiles and Parts",
        "Companies & Organizations > Industrials",
        "Companies & Organizations > Transport/Freight",
        "Companies & Organizations > Health/Medical/Pharmaceuticals",
        "Companies & Organizations > Aerospace/Defense",
        "Companies & Organizations > Mining/Materials",
        "Companies & Organizations > Farming/Agriculture",
        "Companies & Organizations > Chemicals",
        "Companies & Organizations > Consulting/Business Services",
        "Companies & Organizations > Legal/Law",
        "Companies & Organizations > Education",
        "Companies & Organizations > Engineering/Construction",
        "Companies & Organizations > Food/Beverages",
        "Companies & Organizations > Telecommunication",
        "Companies & Organizations > Biotechnology",
        "Companies & Organizations > Computers/Technology",
        "Companies & Organizations > Internet/Software",
        "Companies & Organizations > Travel/Leisure",
        "Companies & Organizations > Community Organization",
        "Companies & Organizations > Political Organization",
        "Companies & Organizations > Church/Religious Organization",
        "Companies & Organizations > Organization",
        "Companies & Organizations > School",
        "Companies & Organizations > University",
        "Companies & Organizations > Non-Profit Organization",
        "Companies & Organizations > Government Organization",
        "Companies & Organizations > Cause",
        "Companies & Organizations > Political Party",
        "Companies & Organizations > Middle School",
        "Local Businesses > Jazz Club",
        "Local Businesses > Juvenile Law",
        "Local Businesses > Just For Fun",
        "Local Businesses > Jewelry Store",
        "Local Businesses > Jewelry Supplier",
        "Local Businesses > Janitorial Service",
        "Local Businesses > Junior High School",
        "Local Businesses > Japanese Restaurant",
        "Local Businesses > Smoothie & Juice Bar",
        "Local Businesses > Hot Dog Joint",
        "Local Businesses > Web Design",
        "Local Businesses > Web Development",
        "Local Businesses > Wedding Planning",
        "Local Businesses > Well Water Drilling Service",
        "Local Businesses > Formal Wear",
        "Local Businesses > Wine Bar",
        "Local Businesses > Wallpaper",
        "Local Businesses > Wig Store",
        "Local Businesses > Warehouse",
        "Local Businesses > Water Park",
        "Local Businesses > Women's Health",
        "Local Businesses > Writing Service",
        "Local Businesses > Waste Management",
        "Local Businesses > Event",
        "Local Businesses > Eyewear",
        "Local Businesses > Eco Tours",
        "Local Businesses > Education",
        "Local Businesses > Esthethics",
        "Local Businesses > Entertainer",
        "Local Businesses > Electrician",
        "Local Businesses > Event Venue",
        "Local Businesses > Estate Lawyer",
        "Local Businesses > Event Planner",
        "Local Businesses > River",
        "Local Businesses > Rodeo",
        "Local Businesses > Resort",
        "Local Businesses > Roofer",
        "Local Businesses > Region",
        "Local Businesses > Rafting",
        "Local Businesses > RV Park",
        "Local Businesses > Railroad",
        "Local Businesses > Robotics",
        "Local Businesses > Reservoir",
        "Local Businesses > Rock Climbing",
        "Local Businesses > Roller Coaster",
        "Local Businesses > Meeting Room",
        "Local Businesses > Tea Room",
        "Local Businesses > Emergency Roadside Service",
        "Local Businesses > Race Cars",
        "Local Businesses > Race Track",
        "Local Businesses > Ramen Restaurant",
        "Local Businesses > Racquetball Court",
        "Local Businesses > Radio & Communication Equipment",
        "Local Businesses > Subway & Light Rail Station",
        "Local Businesses > Gun Range",
        "Local Businesses > Driving Range",
        "Local Businesses > RV Repair",
        "Local Businesses > RV Dealership",
        "Local Businesses > Taxi",
        "Local Businesses > Tennis",
        "Local Businesses > Theatre",
        "Local Businesses > Tutoring",
        "Local Businesses > Textiles",
        "Local Businesses > Toy Store",
        "Local Businesses > Theme Park",
        "Local Businesses > Translator",
        "Local Businesses > Tour Guide",
        "Local Businesses > Yoga & Pilates",
        "Local Businesses > Youth Organization",
        "Local Businesses > Frozen Yogurt Shop",
        "Local Businesses > Urban Farm",
        "Local Businesses > Upholstery Service",
        "Local Businesses > Public Utility",
        "Local Businesses > College & University",
        "Local Businesses > Inn",
        "Local Businesses > Island",
        "Local Businesses > Ice Skating",
        "Local Businesses > Ice Machines",
        "Local Businesses > Internet Cafe",
        "Local Businesses > Insurance Agent",
        "Local Businesses > Irish Restaurant",
        "Local Businesses > Image Consultant",
        "Local Businesses > Insurance Broker",
        "Local Businesses > Ice Cream Parlor",
        "Local Businesses > Other",
        "Local Businesses > Ocean",
        "Local Businesses > OBGYN",
        "Local Businesses > Outdoors",
        "Local Businesses > Orchestra",
        "Local Businesses > Oncologist",
        "Local Businesses > Optometrist",
        "Local Businesses > Organization",
        "Local Businesses > Outlet Store",
        "Local Businesses > Office Supplies",
        "Local Businesses > Pub",
        "Local Businesses > Park",
        "Local Businesses > Port",
        "Local Businesses > Plumber",
        "Local Businesses > Parking",
        "Local Businesses > Painter",
        "Local Businesses > Psychic",
        "Local Businesses > Pharmacy",
        "Local Businesses > Plastics",
        "Local Businesses > Pet Store",
        "Local Businesses > Pawn Shop",
        "Local Businesses > Paintball",
        "Local Businesses > Party Center",
        "Local Businesses > Party Supplies",
        "Local Businesses > Patrol & Security",
        "Local Businesses > Pakistani Restaurant",
        "Local Businesses > Passport & Visa Service",
        "Local Businesses > Arcade",
        "Local Businesses > Archery",
        "Local Businesses > Airport",
        "Local Businesses > Airline",
        "Local Businesses > Allergist",
        "Local Businesses > Appraiser",
        "Local Businesses > Amusement",
        "Local Businesses > Architect",
        "Local Businesses > Auditorium",
        "Local Businesses > Art School",
        "Local Businesses > Apartment & Condo Building",
        "Local Businesses > Appliances",
        "Local Businesses > Apostolic Church",
        "Local Businesses > Real Estate Appraiser",
        "Local Businesses > Adult Education",
        "Local Businesses > Adoption Service",
        "Local Businesses > Advertising Agency",
        "Local Businesses > Addiction Resources",
        "Local Businesses > Adult Entertainment",
        "Local Businesses > Admissions Training",
        "Local Businesses > Advertising Service",
        "Local Businesses > Healthcare Administrator",
        "Local Businesses > Seventh Day Adventist Church",
        "Local Businesses > Health Care Administration",
        "Local Businesses > Afghani Restaurant",
        "Local Businesses > African Restaurant",
        "Local Businesses > African Methodist Episcopal Church",
        "Local Businesses > Agricultural Service",
        "Local Businesses > Real Estate Agent",
        "Local Businesses > Modeling Agency",
        "Local Businesses > Travel Agency",
        "Local Businesses > Collection Agency",
        "Local Businesses > Health Agency",
        "Local Businesses > Employment Agency",
        "Local Businesses > Accountant",
        "Local Businesses > Acupuncture",
        "Local Businesses > Active Life",
        "Local Businesses > Accessories Store",
        "Local Businesses > Car Parts & Accessories",
        "Local Businesses > Automotive Parts & Accessories",
        "Local Businesses > Abortion Services",
        "Local Businesses > Spa",
        "Local Businesses > State",
        "Local Businesses > Street",
        "Local Businesses > School",
        "Local Businesses > Storage",
        "Local Businesses > Startup",
        "Local Businesses > Surveyor",
        "Local Businesses > Swimwear",
        "Local Businesses > Symphony",
        "Local Businesses > Security",
        "Local Businesses > DJ",
        "Local Businesses > DMV",
        "Local Businesses > Deli",
        "Local Businesses > Dorm",
        "Local Businesses > Diner",
        "Local Businesses > Doctor",
        "Local Businesses > Dentist",
        "Local Businesses > Day Spa",
        "Local Businesses > Dive Bar",
        "Local Businesses > Drugstore",
        "Local Businesses > Farm",
        "Local Businesses > Fishing",
        "Local Businesses > Florist",
        "Local Businesses > Food Stand",
        "Local Businesses > Food Truck",
        "Local Businesses > Fairground",
        "Local Businesses > Fireplaces",
        "Local Businesses > Flea Market",
        "Local Businesses > Fireproofing",
        "Local Businesses > Gym",
        "Local Businesses > Gay Bar",
        "Local Businesses > Gardener",
        "Local Businesses > Gastropub",
        "Local Businesses > Gift Shop",
        "Local Businesses > Gun Store",
        "Local Businesses > Go Karting",
        "Local Businesses > Golf Course",
        "Local Businesses > Gas Station",
        "Local Businesses > Home",
        "Local Businesses > Hotel",
        "Local Businesses > Hostel",
        "Local Businesses > Horses",
        "Local Businesses > Highway",
        "Local Businesses > Hospital",
        "Local Businesses > Health Spa",
        "Local Businesses > Hair Salon",
        "Local Businesses > Housewares",
        "Local Businesses > Home Decor",
        "Local Businesses > Church of Jesus Christ of Latter-day Saints",
        "Local Businesses > Kennel",
        "Local Businesses > Karaoke",
        "Local Businesses > Kingdom Hall",
        "Local Businesses > Kitchen Supplies",
        "Local Businesses > Kosher Restaurant",
        "Local Businesses > Korean Restaurant",
        "Local Businesses > Kitchen Construction",
        "Local Businesses > Lake",
        "Local Businesses > Lodge",
        "Local Businesses > Loans",
        "Local Businesses > Lounge",
        "Local Businesses > Lodging",
        "Local Businesses > Library",
        "Local Businesses > Lobbyist",
        "Local Businesses > Landmark",
        "Local Businesses > Laser Tag",
        "Local Businesses > Locksmith",
        "Local Businesses > Zoo & Aquarium",
        "Local Businesses > Petting Zoo",
        "Local Businesses > Camp",
        "Local Businesses > Cafe",
        "Local Businesses > City",
        "Local Businesses > Cabin",
        "Local Businesses > Clergy",
        "Local Businesses > Clinic",
        "Local Businesses > Church",
        "Local Businesses > Casino",
        "Local Businesses > County",
        "Local Businesses > Cruise",
        "Local Businesses > Video Games",
        "Local Businesses > Veterinarian",
        "Local Businesses > Vintage Store",
        "Local Businesses > Vacation Home Rental",
        "Local Businesses > Vietnamese Restaurant",
        "Local Businesses > Vending Machine Service",
        "Local Businesses > Vegetarian & Vegan Restaurant",
        "Local Businesses > Antiques & Vintage",
        "Local Businesses > Fruit & Vegetable Store",
        "Local Businesses > Sports Venue & Stadium",
        "Local Businesses > Bar",
        "Local Businesses > Bank",
        "Local Businesses > Beach",
        "Local Businesses > Bakery",
        "Local Businesses > Bridge",
        "Local Businesses > Brewery",
        "Local Businesses > Borough",
        "Local Businesses > Boating",
        "Local Businesses > Butcher",
        "Local Businesses > Bus Line",
        "Local Businesses > Bail Bonds",
        "Local Businesses > Babysitter",
        "Local Businesses > Barber Shop",
        "Local Businesses > Bar & Grill",
        "Local Businesses > Batting Cage",
        "Local Businesses > Baptist Church",
        "Local Businesses > Basque Restaurant",
        "Local Businesses > Nanny",
        "Local Businesses > Nursing",
        "Local Businesses > Nightlife",
        "Local Businesses > Newspaper",
        "Local Businesses > Night Club",
        "Local Businesses > Nail Salon",
        "Local Businesses > Nutritionist",
        "Local Businesses > Nursing Home",
        "Local Businesses > Neighborhood",
        "Local Businesses > Notary Public",
        "Local Businesses > Mover",
        "Local Businesses > Motel",
        "Local Businesses > Mosque",
        "Local Businesses > Museum",
        "Local Businesses > Market",
        "Local Businesses > Marina",
        "Local Businesses > Metals",
        "Local Businesses > Masonry",
        "Local Businesses > Mission",
        "Local Businesses > Massage",
        "Movies > Actor/Director",
        "Movies > Movie",
        "Movies > Producer",
        "Movies > Writer",
        "Movies > Studio",
        "Movies > Movie Theater",
        "Movies > TV/Movie Award",
        "Movies > Fictional Character",
        "Movies > Movie Character",
        "Music > Album",
        "Music > Song",
        "Music > Musician/Band",
        "Music > Music Video",
        "Music > Concert Tour",
        "Music > Concert Venue",
        "Music > Radio Station",
        "Music > Record Label",
        "Music > Music Award",
        "Music > Music Chart",
        "Other > Community",
        "Other > Just For Fun",
        "People > Actor/Director",
        "People > Producer",
        "People > Writer",
        "People > Fictional Character",
        "People > Movie Character",
        "People > Musician/Band",
        "People > Author",
        "People > Athlete",
        "People > Artist",
        "People > Public Figure",
        "People > Journalist",
        "People > News Personality",
        "People > Chef",
        "People > Business Person",
        "People > Comedian",
        "People > Entertainer",
        "People > Teacher",
        "People > Dancer",
        "People > Designer",
        "People > Photographer",
        "People > Entrepreneur",
        "People > Politician",
        "People > Government Official",
        "People > Coach",
        "People > Pet",
        "Sports > Athlete",
        "Sports > Sports League",
        "Sports > Professional Sports Team",
        "Sports > Coach",
        "Sports > Amateur Sports Team",
        "Sports > School Sports Team",
        "Sports > Sports Event",
        "Sports > Sports Venue",
        "Television > Actor/Director",
        "Television > Writer",
        "Television > Studio",
        "Television > TV/Movie Award",
        "Television > Fictional Character",
        "Television > Movie Character",
        "Television > TV Show",
        "Television > TV Network",
        "Television > TV Channel",
        "Television > Episode",
        "Television > TV Season",
        "Websites & Blogs > Personal Blog",
        "Websites & Blogs > Arts/Humanities Website",
        "Websites & Blogs > Business/Economy Website",
        "Websites & Blogs > Computers/Internet Website",
        "Websites & Blogs > Education Website",
        "Websites & Blogs > Entertainment Website",
        "Websites & Blogs > Government Website",
        "Websites & Blogs > Health/Wellness Website",
        "Websites & Blogs > Home/Garden Website",
        "Websites & Blogs > News/Media Website",
        "Websites & Blogs > Recreation/Sports Website",
        "Websites & Blogs > Reference Website",
        "Websites & Blogs > Regional Website",
        "Websites & Blogs > Science Website",
        "Websites & Blogs > Society/Culture Website",
        "Websites & Blogs > Local/Travel Website",
        "Websites & Blogs > Teens/Kids Website",
        "Websites & Blogs > Personal Website",
        "Non-governmental Organization (ngo)",
        "Restaurant/cafe",
        "Food & Restaurant",
        "Beer Garden",
        "Brewery ",
        "Cyber Cafe",
        "Cafeteria",
        "Coffee Shop",
        "Cupcake Shop",
        "Donuts & Bagels",
        "Farmers Market",
        "Frozen Yogurth Shop",
        "Restaurant",
        "Restaurant Wholesale",
        "Salad Bar",
        "Smoothie Bar & Juice Bar",
        "Sports Bar",
        "Shopping & Retail",
        "Antique Store",
        "Auction House",
        "Arts & Crafts Supply Store",
        "Big Box Retailer",
        "Bike Shop",
        "Bookstore",
        "Religious Bookstore",
        "Camera Store",
        "Comic Store",
        "Clothing Store",
        "Accesories Store",
        "Bridal Shop",
        "Children's Clothing Store",
        "Costume Shop",
        "Men's Clothing Store",
        "Shoe Store",
        "Sportswear",
        "Women's Clothing Store",
        "Computer Store",
        "Electronics Store",
        "Computers & Electronics ",
        "Convenience Store",
        "Lottery Store",
        "Tobacco Store",
        "Cosmetics & Beauty Supply",
        "Department Store",
        "Discount Store",
        "Dry Cleaner",
        "Dvd & Video Store",
        "Food & Grocery",
        "Candy Store",
        "Liquor Store",
        "Meat Shop",
        "Specialty Grocery Store",
        "Health Food Store",
        "Grocery Store",
        "Furniture Repair",
        "Furniture Store",
        "Blinds & Curtains",
        "Cabinets & Countertops",
        "Carpenter",
        "Carpet & Flooring Store",
        "Carpet Cleaner",
        "Cleaning Service",
        "Concrete Contractor",
        "Construction Service & Supply",
        "Contractor",
        "Garage Door Services",
        "Glass Service",
        "Hardware Store",
        "Hardware & Tools Service",
        "Heating, Ventilating & Air Conditioning",
        "Home Cleaning",
        "Home Security",
        "Interior Designer",
        "Landscaping",
        "Lighting Fixtures",
        "Mattresses & Bedding",
        "Mobile Homes",
        "Pest Control",
        "Portable Toilet Rentals",
        "Property Management",
        "Sewer Service",
        "Solar Energy Service",
        "Storage ",
        "Swimming Pool Maintenance",
        "Tools Service",
        "Home Improvement",
        "Laundromat",
        "Luggage Service",
        "Mobile Phone Shop",
        "Music Store",
        "Musical Instrument Store",
        "Outdoor Equipement Store",
        "Shopping District",
        "Shopping Mall",
        "Signs & Banner Service",
        "Sporting Goods Store",
        "Wholesale & Supply Store",
        "Winery & Vineyard",
        "Tapas Bar & Restaurant",
        "Dance Club",
        "Hookah Lounge",
        "Professional Services ",
        "Fashion Designer",
        "Graphic Design",
        "Market Research Consultant",
        "Marketing Consultant",
        "Music Production",
        "Photographic Services & Equipment",
        "Public Relations",
        "Screen Printing & Embroidery",
        "Sports Promoter",
        "Trophies & Engraving",
        "Web Design ",
        "Auto Body Shop",
        "Auto Glass",
        "Automobile Leasing",
        "Automotive Consultant",
        "Automotive Customizing",
        "Automotive Parts & Accesories",
        "Automotive Repair",
        "Automotive Storage",
        "Automotive Wholesaler",
        "Car Dealership",
        "Car Parts & Accesories",
        "Car Wash & Detailing",
        "Motorcycle Repair",
        "Motorcycles",
        "Tire Dealer",
        "Business Consultant",
        "Medical & Health",
        "Law Practice",
        "Event Planning",
        "Bands & Musicians",
        "Bartending Service",
        "Caterer",
        "Currency Exchange",
        "Investing Service",
        "Mortgage Brokers",
        "Tax Preparation",
        "Personal Trainer",
        "Personal Coaching",
        "Dog Walker",
        "Dog Training",
        "Family Doctor",
        "Tanning Salon",
        "Beauty Salon",
        "Ticket Sales",
        "School Transportation",
        "Culinary School",
        "Driving School",
        "Language School",
        "Spa, Beauty & Personal Care",
        "Medical Spa",
        "Dental Equipment",
        "Dance Instruction",
        "Dating Service",
        "Day Care & Preschool",
        "Nutricionist",
        "Makeup Artist",
        "Martial Arts",
        "Maid & Butler",
        "Medical Lab",
        "Medical Supplies",
        "Physical Fitness",
        "Physical Trainer",
        "Laser Hair Removal ",
        "Tattoo & Piercing",
        "Pizza Place",
        "Plastic Surgery",
        "Podiatrist",
        "Sandwich Shop",
        "Music Lessons & Instruction",
        "Cooking Lesson",
        "Technical Institute",
        "Sports Instruction",
        "Traffic School",
        "Skin Care ",
        "Fitness Center",
        "Acupuncture ",
        "Alternative & Holistic Health",
        "Chiropractor",
        "Counseling & Mental Health",
        "Physical Therapist",
        "Real Estate Service",
        "Pet Groomer",
        "Pet Sitter",
        "Animal Shelter",
        "Swimming Pool"
]